Tutorial Part 1: From Gorilla to Tidy Data in 5 Easy Steps
…
raw_data <- raw_data %>% 
  filter(Zone.Type == "response_button_text")

So all in all, we have said here that we want to re-assign (<-) the raw_data object by: taking the existing raw_data; and then applying a filter to keep only the rows with "response_button_text" in the Zone.Type column.

Check the data look sensible

Now we have narrowed down the dataset, we expect to have one row per trial, per participant. We can check this by counting how many trials we have per participant.

raw_data %>%                             
  group_by(Participant.Private.ID) %>%    
  count()             

## # A tibble: 52 x 2
## # Groups:   Participant.Private.ID [52]
##    Participant.Private.ID     n
##                     <int> <int>
##  1                 508739    15
##  2                 508745    15
##  3                 508749    15
##  4                 508754    15
##  5                 508757    15
##  6                 508942    15
##  7                 510444    15
##  8                 510447    15
##  9                 510457    15
## 10                 510463    15
## # ... with 42 more rows
…
